@startuml

title Madam variables scope and mapping

[*] --> Loop_Start

state Loop_Start {
    InputCollection: //global//
    InputElement: //global//
    InputCollection -> InputElement
}
Variables_Before: //global//
Loop_Start --> Variables_Before
Input: //local//
Variables_Before --> Input:  Mapping
Input --> Agent

Output: //local//
Agent --> Output

Variables_After: //global//

Output --> Variables_After:  Mapping

state Loop_End {
    OutputElement: //global//
    OutputCollection: //global//
    OutputElement -> OutputCollection
}

Variables_After --> Loop_End

Loop_End --> [*]

@enduml
